<?xml version="1.0" encoding="UTF-8"?>
<svg height="16px" viewBox="0 0 16 16" width="16px" xmlns="http://www.w3.org/2000/svg">
    <g fill-rule="evenodd">
        <path d="m 5.210938 1.011719 c -2.890626 0 -5.2500005 2.359375 -5.2500005 5.25 v 4.375 c 0 2.894531 2.3593745 5.25 5.2500005 5.25 h 5.585937 c 2.890625 0 5.25 -2.355469 5.25 -5.25 v -4.375 c 0 -2.890625 -2.359375 -5.25 -5.25 -5.25 z m 0 2 h 5.585937 c 1.816406 0 3.25 1.433593 3.25 3.25 v 4.375 c 0 1.820312 -1.433594 3.25 -3.25 3.25 h -5.585937 c -1.816407 0 -3.25 -1.429688 -3.25 -3.25 v -4.375 c 0 -1.816407 1.433593 -3.25 3.25 -3.25 z m 0 0"/>
        <g fill="#3d3846">
            <path d="m 10 5.003906 h 1 v 3 h -1 z m 0 0"/>
            <path d="m 12 10 v 0.9375 h -3 v -0.9375 z m 0 0"/>
            <path d="m 12 6 v 1 h -3 v -1 z m 0 0"/>
            <path d="m 5.453125 5 h 0.089844 c 0.828125 0 1.5 0.671875 1.5 1.5 s -0.671875 1.5 -1.5 1.5 h -0.089844 c -0.828125 0 -1.5 -0.671875 -1.5 -1.5 s 0.671875 -1.5 1.5 -1.5 z m 0 0"/>
            <path d="m 5.453125 8.996094 h 0.089844 c 0.828125 0 1.5 0.671875 1.5 1.5 s -0.671875 1.5 -1.5 1.5 h -0.089844 c -0.828125 0 -1.5 -0.671875 -1.5 -1.5 s 0.671875 -1.5 1.5 -1.5 z m 0 0"/>
        </g>
    </g>
</svg>
